{
  "games": [
    {
      "name": "CounterStrike:Global Offensive",
      "year": 2012,
      "genres": "FPS",
      "question": "poznáš?",
      "options": [
        "ano",
        "nie"
      ]
    },
    {
      "name": "GTA V",
      "year": 2013,
      "genres": "action-adventure",
      "question": "poznáš?",
      "options": [
        "ano",
        "nie"
      ]
    },
    {
      "name": "Watch Dogs",
      "year": 2014,
      "genres": "action-adventure",
      "question": "poznáš?",
      "options": [
        "ano",
        "nie"
      ]
    },
    {
      "name": "MU Online",
      "year": 2001,
      "genres": "MMORPG",
      "question": "poznáš?",
      "options": [
        "ano",
        "nie"
      ]
    }
  ]
}